timeStamp,elapsed,label,responseCode,responseMessage,threadName,dataType,success,failureMessage,bytes,sentBytes,grpThreads,allThreads,Latency,IdleTime,Connect
1524757826376,152,7 /,200,OK,Thread Group 1-1,text,true,,1434,365,1,1,150,0,97
1524757826004,152,Open homepage,200,"Number of samples in transaction : 1, number of failing samples : 0",Thread Group 1-1,,true,,1434,365,1,1,150,386,97
1524757826544,6329,36 /,200,OK,Thread Group 1-1,text,true,,5436,1431,1,1,6305,0,0
1524757832879,21,37 /reports,200,OK,Thread Group 1-1,text,true,,3484,823,1,1,3,0,0
1524757826543,6350,Login,200,"Number of samples in transaction : 2, number of failing samples : 0",Thread Group 1-1,,true,,8920,2254,1,1,6308,8,0
1524757835902,38,44 /management/index.php,200,OK,Thread Group 1-1,text,true,,6882,432,1,1,38,0,1
1524757832901,38,Open Risk management,200,"Number of samples in transaction : 1, number of failing samples : 0",Thread Group 1-1,,true,,6882,432,1,1,38,3004,1
1524757838944,87,55 /management/index.php,200,OK,Thread Group 1-1,text,true,,6963,6356,1,1,86,0,23
1524757835943,87,Submit risk with file attachment,200,"Number of samples in transaction : 1, number of failing samples : 0",Thread Group 1-1,,true,,6963,6356,1,1,86,3003,23
1524757839033,27,60 /logout.php,200,OK,Thread Group 1-1,text,true,,1934,848,1,1,15,0,0
1524757842061,23,61 /index.php,200,OK,Thread Group 1-1,text,true,,1365,414,1,1,23,0,2
1524757839033,50,Logout,200,"Number of samples in transaction : 2, number of failing samples : 0",Thread Group 1-1,,true,,3299,1262,1,1,38,3002,2
1524757826004,6677,Submit risk,200,"Number of samples in transaction : 11, number of failing samples : 0",Thread Group 1-1,,true,,27498,10669,1,1,6620,9404,123
1524757842085,0,Transaction Controller,200,"Number of samples in transaction : 0, number of failing samples : 0",,,true,,0,0,0,0,0,0,0
